\relax 
\providecommand\hyper@newdestlabel[2]{}
\@writefile{toc}{\beamer@subsectionintoc {3}{3}{OpenNMS}{18}{0}{3}}
\@writefile{nav}{\headcommand {\beamer@subsectionpages {5}{17}}}
\@writefile{nav}{\headcommand {\beamer@subsectionentry {0}{3}{3}{18}{OpenNMS}}}
\@writefile{nav}{\headcommand {\slideentry {3}{3}{0}{18/18}{}{0}}}
\@writefile{nav}{\headcommand {\beamer@framepages {18}{18}}}
\newlabel{fig:openNMS}{{5}{19}{Werkzeuge}{Doc-Start}{}}
\@writefile{snm}{\beamer@slide {fig:openNMS}{19}}
\@writefile{nav}{\headcommand {\slideentry {3}{3}{1}{19/19}{}{0}}}
\@writefile{nav}{\headcommand {\beamer@framepages {19}{19}}}
\newlabel{fig:my_label}{{6}{20}{Werkzeuge}{Doc-Start}{}}
\@writefile{snm}{\beamer@slide {fig:my_label}{20}}
\@writefile{nav}{\headcommand {\slideentry {3}{3}{2}{20/20}{}{0}}}
\@writefile{nav}{\headcommand {\beamer@framepages {20}{20}}}
\@writefile{toc}{\beamer@subsectionintoc {3}{4}{Imixs}{21}{0}{3}}
\@writefile{nav}{\headcommand {\beamer@subsectionpages {5}{20}}}
\@writefile{nav}{\headcommand {\beamer@subsectionentry {0}{3}{4}{21}{Imixs}}}
\newlabel{fig:Imixs}{{7}{21}{Imixs}{Doc-Start}{}}
\@writefile{snm}{\beamer@slide {fig:Imixs}{21}}
\@writefile{nav}{\headcommand {\slideentry {3}{4}{0}{21/21}{}{0}}}
\@writefile{nav}{\headcommand {\beamer@framepages {21}{21}}}
\@writefile{toc}{\beamer@subsectionintoc {3}{5}{OpenVAS}{22}{0}{3}}
\@writefile{nav}{\headcommand {\beamer@subsectionpages {5}{21}}}
\@writefile{nav}{\headcommand {\beamer@subsectionentry {0}{3}{5}{22}{OpenVAS}}}
\@writefile{nav}{\headcommand {\slideentry {3}{5}{0}{22/22}{}{0}}}
\@writefile{nav}{\headcommand {\beamer@framepages {22}{22}}}
\@writefile{nav}{\headcommand {\slideentry {3}{5}{1}{23/23}{}{0}}}
\@writefile{nav}{\headcommand {\beamer@framepages {23}{23}}}
\@writefile{nav}{\headcommand {\slideentry {3}{5}{2}{24/24}{}{0}}}
\@writefile{nav}{\headcommand {\beamer@framepages {24}{24}}}
\@writefile{nav}{\headcommand {\slideentry {3}{5}{3}{25/25}{}{0}}}
\@writefile{nav}{\headcommand {\beamer@framepages {25}{25}}}
\@setckpt{falko}{
\setcounter{page}{26}
\setcounter{equation}{0}
\setcounter{enumi}{0}
\setcounter{enumii}{0}
\setcounter{enumiii}{0}
\setcounter{enumiv}{0}
\setcounter{footnote}{0}
\setcounter{mpfootnote}{0}
\setcounter{beamerpauses}{1}
\setcounter{bookmark@seq@number}{8}
\setcounter{lecture}{0}
\setcounter{part}{0}
\setcounter{section}{3}
\setcounter{subsection}{5}
\setcounter{subsubsection}{0}
\setcounter{subsectionslide}{3}
\setcounter{framenumber}{25}
\setcounter{figure}{7}
\setcounter{table}{0}
\setcounter{parentequation}{0}
\setcounter{theorem}{0}
\setcounter{section@level}{0}
}
