\relax 
\providecommand\hyper@newdestlabel[2]{}
\providecommand\HyperFirstAtBeginDocument{\AtBeginDocument}
\HyperFirstAtBeginDocument{\ifx\hyper@anchor\@undefined
\global\let\oldcontentsline\contentsline
\gdef\contentsline#1#2#3#4{\oldcontentsline{#1}{#2}{#3}}
\global\let\oldnewlabel\newlabel
\gdef\newlabel#1#2{\newlabelxx{#1}#2}
\gdef\newlabelxx#1#2#3#4#5#6{\oldnewlabel{#1}{{#2}{#3}}}
\AtEndDocument{\ifx\hyper@anchor\@undefined
\let\contentsline\oldcontentsline
\let\newlabel\oldnewlabel
\fi}
\fi}
\global\let\hyper@last\relax 
\gdef\HyperFirstAtBeginDocument#1{#1}
\providecommand\HyField@AuxAddToFields[1]{}
\providecommand\HyField@AuxAddToCoFields[2]{}
\catcode `"\active 
\babel@aux{german}{}
\@writefile{nav}{\headcommand {\slideentry {0}{0}{1}{1/1}{}{0}}}
\@writefile{nav}{\headcommand {\beamer@framepages {1}{1}}}
\@writefile{nav}{\headcommand {\slideentry {0}{0}{2}{2/2}{}{0}}}
\@writefile{nav}{\headcommand {\beamer@framepages {2}{2}}}
\@writefile{toc}{\beamer@sectionintoc {1}{Einleitende Worte}{3}{0}{1}}
\@writefile{nav}{\headcommand {\beamer@sectionpages {1}{2}}}
\@writefile{nav}{\headcommand {\beamer@subsectionpages {1}{2}}}
\@writefile{nav}{\headcommand {\sectionentry {1}{Einleitende Worte}{3}{Einleitende Worte}{0}}}
\@writefile{nav}{\headcommand {\slideentry {1}{0}{1}{3/3}{}{0}}}
\@writefile{nav}{\headcommand {\beamer@framepages {3}{3}}}
\@writefile{toc}{\beamer@sectionintoc {2}{Anforderungen an eine Risikomanagement-Software}{4}{0}{2}}
\@writefile{nav}{\headcommand {\beamer@sectionpages {3}{3}}}
\@writefile{nav}{\headcommand {\beamer@subsectionpages {3}{3}}}
\@writefile{nav}{\headcommand {\sectionentry {2}{Anforderungen an eine Risikomanagement-Software}{4}{Anforderungen an eine Risikomanagement-Software}{0}}}
\@writefile{nav}{\headcommand {\slideentry {2}{0}{0}{4/4}{}{0}}}
\@writefile{nav}{\headcommand {\beamer@framepages {4}{4}}}
\@writefile{toc}{\beamer@sectionintoc {3}{Werkzeuge}{5}{0}{3}}
\@writefile{nav}{\headcommand {\beamer@sectionpages {3}{4}}}
\@writefile{nav}{\headcommand {\beamer@subsectionpages {3}{4}}}
\@writefile{nav}{\headcommand {\sectionentry {3}{Werkzeuge}{5}{Werkzeuge}{0}}}
\@writefile{nav}{\headcommand {\slideentry {3}{0}{1}{5/5}{}{0}}}
\@writefile{nav}{\headcommand {\beamer@framepages {5}{5}}}
\@input{romy.aux}
\@input{daniel.aux}
\@input{falko.aux}
\@input{sidoc.aux}
\@writefile{toc}{\beamer@sectionintoc {4}{Fazit}{33}{0}{4}}
\@writefile{nav}{\headcommand {\beamer@sectionpages {5}{32}}}
\@writefile{nav}{\headcommand {\beamer@subsectionpages {5}{32}}}
\@writefile{nav}{\headcommand {\sectionentry {4}{Fazit}{33}{Fazit}{0}}}
\@writefile{nav}{\headcommand {\slideentry {4}{0}{1}{33/33}{}{0}}}
\@writefile{nav}{\headcommand {\beamer@framepages {33}{33}}}
\@writefile{nav}{\headcommand {\slideentry {4}{0}{2}{34/34}{}{0}}}
\@writefile{nav}{\headcommand {\beamer@framepages {34}{34}}}
\@writefile{nav}{\headcommand {\beamer@partpages {1}{34}}}
\@writefile{nav}{\headcommand {\beamer@subsectionpages {33}{34}}}
\@writefile{nav}{\headcommand {\beamer@sectionpages {33}{34}}}
\@writefile{nav}{\headcommand {\beamer@documentpages {34}}}
\@writefile{nav}{\headcommand {\gdef \inserttotalframenumber {34}}}
