\relax 
\providecommand\hyper@newdestlabel[2]{}
\@writefile{toc}{\beamer@subsectionintoc {3}{6}{Sidoc}{26}{0}{3}}
\@writefile{nav}{\headcommand {\beamer@subsectionpages {5}{25}}}
\@writefile{nav}{\headcommand {\beamer@subsectionentry {0}{3}{6}{26}{Sidoc}}}
\@writefile{nav}{\headcommand {\slideentry {3}{6}{0}{26/26}{}{0}}}
\@writefile{nav}{\headcommand {\beamer@framepages {26}{26}}}
\@writefile{nav}{\headcommand {\slideentry {3}{6}{1}{27/27}{}{0}}}
\@writefile{nav}{\headcommand {\beamer@framepages {27}{27}}}
\@writefile{nav}{\headcommand {\slideentry {3}{6}{2}{28/28}{}{0}}}
\@writefile{nav}{\headcommand {\beamer@framepages {28}{28}}}
\@writefile{nav}{\headcommand {\slideentry {3}{6}{3}{29/29}{}{0}}}
\@writefile{nav}{\headcommand {\beamer@framepages {29}{29}}}
\@writefile{nav}{\headcommand {\slideentry {3}{6}{4}{30/30}{}{0}}}
\@writefile{nav}{\headcommand {\beamer@framepages {30}{30}}}
\@writefile{nav}{\headcommand {\slideentry {3}{6}{5}{31/31}{}{0}}}
\@writefile{nav}{\headcommand {\beamer@framepages {31}{31}}}
\@writefile{nav}{\headcommand {\slideentry {3}{6}{6}{32/32}{}{0}}}
\@writefile{nav}{\headcommand {\beamer@framepages {32}{32}}}
\@setckpt{sidoc}{
\setcounter{page}{33}
\setcounter{equation}{0}
\setcounter{enumi}{0}
\setcounter{enumii}{0}
\setcounter{enumiii}{0}
\setcounter{enumiv}{0}
\setcounter{footnote}{0}
\setcounter{mpfootnote}{0}
\setcounter{beamerpauses}{1}
\setcounter{bookmark@seq@number}{9}
\setcounter{lecture}{0}
\setcounter{part}{0}
\setcounter{section}{3}
\setcounter{subsection}{6}
\setcounter{subsubsection}{0}
\setcounter{subsectionslide}{6}
\setcounter{framenumber}{32}
\setcounter{figure}{7}
\setcounter{table}{0}
\setcounter{parentequation}{0}
\setcounter{theorem}{0}
\setcounter{section@level}{0}
}
