\relax 
\providecommand\hyper@newdestlabel[2]{}
\providecommand*\new@tpo@label[2]{}
\catcode `"\active 
\providecommand\HyperFirstAtBeginDocument{\AtBeginDocument}
\HyperFirstAtBeginDocument{\ifx\hyper@anchor\@undefined
\global\let\oldcontentsline\contentsline
\gdef\contentsline#1#2#3#4{\oldcontentsline{#1}{#2}{#3}}
\global\let\oldnewlabel\newlabel
\gdef\newlabel#1#2{\newlabelxx{#1}#2}
\gdef\newlabelxx#1#2#3#4#5#6{\oldnewlabel{#1}{{#2}{#3}}}
\AtEndDocument{\ifx\hyper@anchor\@undefined
\let\contentsline\oldcontentsline
\let\newlabel\oldnewlabel
\fi}
\fi}
\global\let\hyper@last\relax 
\gdef\HyperFirstAtBeginDocument#1{#1}
\providecommand\HyField@AuxAddToFields[1]{}
\providecommand\HyField@AuxAddToCoFields[2]{}
\babel@aux{ngerman}{}
\@writefile{toc}{\contentsline {section}{\numberline {1}Risikomanagement}{2}{section.1}}
\@writefile{toc}{\contentsline {subsection}{\numberline {1.1}Risikoidentifikation}{2}{subsection.1.1}}
\@writefile{toc}{\contentsline {subsection}{\numberline {1.2}Risikoanalyse}{2}{subsection.1.2}}
\@writefile{toc}{\contentsline {subsection}{\numberline {1.3}Risikobewertung}{3}{subsection.1.3}}
\@writefile{lof}{\contentsline {figure}{\numberline {1}{\ignorespaces Risikomatrix nach BSI}}{3}{figure.1}}
\@writefile{toc}{\contentsline {subsection}{\numberline {1.4}Risikobehandlung}{4}{subsection.1.4}}
\@writefile{toc}{\contentsline {section}{\numberline {2}Anforderungen an ein Risikomanagement-System}{4}{section.2}}
\@writefile{toc}{\contentsline {section}{\numberline {3}Risikomanagement-Software-Produkte}{5}{section.3}}
\@writefile{toc}{\contentsline {subsection}{\numberline {3.1}Software-Produkte - Mission Impossible}{5}{subsection.3.1}}
\@writefile{toc}{\contentsline {subsection}{\numberline {3.2}Evaluierte Software-Produkte}{5}{subsection.3.2}}
\@writefile{toc}{\contentsline {subsubsection}{\numberline {3.2.1}Verinice}{5}{subsubsection.3.2.1}}
\@writefile{lof}{\contentsline {figure}{\numberline {2}{\ignorespaces Weboberflaeche von Verinice}}{6}{figure.2}}
\@writefile{toc}{\contentsline {subsubsection}{\numberline {3.2.2}Softwaretool eramba}{7}{subsubsection.3.2.2}}
\@writefile{lof}{\contentsline {figure}{\numberline {3}{\ignorespaces Weboberflaeche von eramba}}{7}{figure.3}}
\@writefile{toc}{\contentsline {subsubsection}{\numberline {3.2.3}Open-Source Programme}{8}{subsubsection.3.2.3}}
\@writefile{toc}{\contentsline {paragraph}{\nonumberline OpenNMS - Strukturanalyse}{8}{section*.1}}
\@writefile{toc}{\contentsline {paragraph}{\nonumberline Imixs - Prozessanalyse}{9}{section*.2}}
\@writefile{toc}{\contentsline {paragraph}{\nonumberline OpenVAS - Erfolgsevaluation}{9}{section*.3}}
\@writefile{toc}{\contentsline {subsubsection}{\numberline {3.2.4}Sidoc}{10}{subsubsection.3.2.4}}
\@writefile{toc}{\contentsline {section}{\numberline {4}Zusammenfassung}{11}{section.4}}
