\BOOKMARK [1][-]{section.1}{Risikomanagement}{}% 1
\BOOKMARK [2][-]{subsection.1.1}{Risikoidentifikation}{section.1}% 2
\BOOKMARK [2][-]{subsection.1.2}{Risikoanalyse}{section.1}% 3
\BOOKMARK [2][-]{subsection.1.3}{Risikobewertung}{section.1}% 4
\BOOKMARK [2][-]{subsection.1.4}{Risikobehandlung}{section.1}% 5
\BOOKMARK [1][-]{section.2}{Anforderungen an ein Risikomanagement-System}{}% 6
\BOOKMARK [1][-]{section.3}{Risikomanagement-Software-Produkte}{}% 7
\BOOKMARK [2][-]{subsection.3.1}{Software-Produkte - Mission Impossible}{section.3}% 8
\BOOKMARK [2][-]{subsection.3.2}{Evaluierte Software-Produkte}{section.3}% 9
\BOOKMARK [3][-]{subsubsection.3.2.1}{Verinice}{subsection.3.2}% 10
\BOOKMARK [3][-]{subsubsection.3.2.2}{Softwaretool eramba}{subsection.3.2}% 11
\BOOKMARK [3][-]{subsubsection.3.2.3}{Open-Source Programme}{subsection.3.2}% 12
\BOOKMARK [3][-]{subsubsection.3.2.4}{Sidoc}{subsection.3.2}% 13
\BOOKMARK [1][-]{section.4}{Zusammenfassung}{}% 14
